1|ANTIPIROSIS
1001|DICUMARINICO
1005|ANTIAGREGANTE PLAQUETARIO
1006|ANTITROMBOTICO
1007|HEPARINICO
101|ANTICOLINERGICO
104|ANTIESPASMODICO
106|ANALGESICO/ESPASMOLITICO
108|ESPASMOLITICO
1099|ANTAGONISTA VITAMINA K
110|ANTIPERISTALTICO
1101|ANTIHEMORRAGICO
1103|HEMOSTATICO
1104|PROCOAGULANTE
1108|AGREGANTE PLAQUETARIO
1199|ANTIHEMORRAGICO-OTROS
1199|ANTIFIBRINOLITICO
12|ANTIGASTRICA
1201|PREVENIR ANEMIA
1204|SUPLEMENTO HIERRO
1215|SUBIR HEMATIES
1216|APORTE FERRICO
1217|AUMENTAR HEMATIES
1218|ELEVAR SIDEREMIA
124|ANTIPEPTICO
1299|FOLICOTERAPIA
1301|BAJAR COLESTEROL
1303|ANTIARTERIOSCLEROSO
1309|ANTILIPEMICO
1312|ANTIESCLEROSANTE
1313|LIPOLITICO
1314|ANTIATEROMATOSO
1315|ATEROLITICO
1318|LIPEMIANTE
1399|BAJAR TRIGLICERIDOS
14|NEUTRALIZANTE
1501|FIBRINOLITICO
1599|FIBRINOLITICO-OTROS
1599|ANTIHEMATOMA
1599|REDUCIR HEMATOMA
18|ANTIESPUMANTE
199|ANTICOLICO
2|CARMINATIVO
2001|CRONOTROPO NEGATIVO
2003|BETA BLOQUANTE
2004|BRADICARDIZANTE
2005|REGULARDOR RITMO CARDIA
2005|REGULADOR RITMO CARDIACO
2005|CONTROL FRECUENCIA CARDIACA
2007|SEDANTE CARDIACO
2008|DIGITALICO
201|ANTIEMETICO
202|ANTINAUSEAS
203|ANTIMAREO
206|ANTIVOMITOS
2099|ANTIARRITMICO-OTROS
2101|ESTIMULANTE MIOCARDIO
2103|CARDIOTONICO
2104|COMPENSACION CARDIACA
2108|ESTIMULANTE CARDIACO
2110|TONICO CARDIACO
2118|OXIGENADOR CORONARIO
2199|ANAL.CARDIAC-OTROS
2201|BAJAR HTA
2202|ANTIHIPERTENSION
2203|DESCENDER TENSION
2205|HIPOTENSOR/DIURETICO
2213|BAJAR TENSION
2299|HIPOTENSOR PORTAL
2301|DIURETICO
2302|ANTIEDEMATOSO
2306|ELIMINAR LIQUIDOS
2399|ANTIALDOSTERONICO
2401|VASODILATADOR PERIFERICO
2499|VASODILATADOR PERFERICO-OTROS
2501|ANTIHEMORROIDAL
2599|ANTIHEMORROIDAL-OTROS
2601|VASODILATADOR CORONARIO
2603|DILATADOR CORONARIO
2608|MEJORAR CIRCULACION CORONARIA
2609|ANTIANGINOSO
2614|ANTAGONISTA CALCIO
2617|OXIGENADOR MIOCARDICO
2699|VASODILATADOR CORONARIO-OTROS
2701|HIPERTENSOR
2702|ELEVAR TENSION
2799|HIPERTENSOR-OTROS
2902|ACTIVAR CIRCULACION
2904|ESCLEROSANTE
2905|VASODILATADOR CEREBRAL
2906|VASOCONSTRICTOR
2907|VASODILATADOR
2909|TONICO VENOSO
2910|VASO PROTECTOR
2911|FLEBOSTATICO
2914|FLEBOTONICA
2915|MEJORAR RIEGO
2917|ANTIANGOR
2920|MEJORAR CIRCULACION CEREBRAL
2925|VASOACTIVADOR
2936|FLEBODINAMICO
2937|OXIGENADOR CEREBRAL
2938|TONICO VASCULAR
2943|MEJORAR CIRCULACION VENOSA
2943|MEJORAR RETORNO VENOSO
2944|TONICO CIRCULATORIO
2945|VASOREGULADOR
2946|PROTECTOR VASCULAR
2968|HEMORREOLOGICO
2969|MEJORAR RIEGO CEREBRAL
2970|PROTECTOR VENOSO
2971|VASOTONICO
299|ANTIRREGURGITACION
2999|MEJORAR PERFUSION
2999|OTROS EFECTOS CARDIOVASCULARES
2999|BAJAR ISQUEMIA
2999|SUBIR PRECARGA
3001|ANTIHONGOS
3002|ELIMINAR HONGOS
3003|ANTIMICOTICO
3004|ANTICANDIDA
301|COLERETICO
303|LIPOTROPICO
304|COLAGOGO
305|PROTECTOR HEPATICO
3099|ANTIMICOTICO-OTROS
3101|SUAVIZAR PIEL
3103|LUBRICANTE
312|ANTIACETONEMIA
3199|EMOLIENTE-OTROS
3201|CICATRIZANTE
3203|EPITELIZANTE
3299|CICATRIZANTE-OTROS
3301|ANTIPRURIGINOSO
3301|ANTIPRURITO
3305|QUITAR PICOR
3399|ANTIPRURIGINOSO-OTROS
3401|ANTIACNE
3402|QUERATOLITICO
3499|COMEDOLITICO
3501|ANTIECZEMATOSO
3599|ANTIECZEMA-OTROS
3901|ANTISEBORREICO
3902|CAUTERIZANTE
3905|ANTIDERMATITIS
3907|ANTIPSORIASICO
3908|ANTIEXUDATIVO
3909|ANTIVARICOSO
3924|ASTRINGENTE
3925|SECANTE
3940|ANTIHERPETICO
3947|HIDRATANTE
3948|ANTICASPA
399|DEPURATIVO VESICULAR
3999|CAMBIAR PH PIEL
3999|DESCAMATIVO
3999|DESPIGMENTANTE
3999|DESODORANTE
3999|EXFOLIANTE
3999|ANTIERITEMATOSO
3999|QUERATORREGULADOR
3999|PEELING
3999|OTROS EFECTOS DERMATOLOGICOS
3999|LIMPIEZA PIEL
3999|IRRITATIVO
4001|ALIVIAR SOFOCOS
4002|REGULADOR CICLO MENSTRUAL
4003|SUPRIMIR LACTACION
4004|ANTIABORTIVO
4005|SEDANTE UTERINO
4006|ESTIMULANTE UTERINO
4008|ANTIDISMENORREA
401|LAXANTE
4010|PROTECTOR EMBARAZO
4026|INDUCIR REGLA
4026|PROVOCAR MENSTRUACION
4031|ESTERILIZAR VAGIN
4032|UTEROTONICO
4034|INHIBIR LACTACION
4035|ANTILEUCORREA
4099|MEJORAR TROFISMO VAGINAL
4101|OXITOCICO
4199|OCITOCICA-OTROS
4201|CONTRACEPTIVO
4209|OVULOSTATICO
4210|ANOVULATORIO
4299|ANTICONCEPTVO-OTROS
4301|ANTISEPTICO URINARIO
4304|BAJAR VOLUMEN URINARIO NOCTURNO
4310|ANTIUREMICO
4312|DESINFECTANTE URINARIO
4312|ESTERILIZAR ORINA
4324|URICEMICO
4325|DESCONGESTIONANTE PROSTATICO
4327|ANTIBIOTICO-URINARIO
4399|CONTENCION ORINA
4399|REDUCIR TAMAÑO PROSTATA
4399|ALCALINIZANTE ORINA
4399|MEJORAR MICCION
4401|BAJAR HORMONAS TIROIDEAS
4405|TIREOSTATICO
4499|ANTIBOCIO
4499|SUSTITUTIVO HORMONAL H03
4499|TERAPIA TIROIDEA-OTROS
4499|ELEVAR T4
4499|ELEVAR HORMONA TIROIDEA
4501|ESTEROIDE
4501|TERAPIA ESTEROIDE
4502|SUPLEMENT.HORMONAL
4504|CORTICOIDE
4507|ESTROGENO
4511|PROGESTAGENO
4516|GESTAGENOS
4517|HORMONAL
4525|INDUCIR OVULACION
4526|SUBSTITUT.HORMONAL
4544|DESCENDER TESTICULOS
4599|ANALOGO LH-RH
499|AUMENTAR BOLO INTESTINAL
5|ADSORBENTE
5001|BAJAR INFECCION
5002|ANTIBIOTICO
5003|ANTIBIOTICO-BALSAMICO
5005|COMBATIR INFECCION
5006|QUIMIOTERAPIA
501|ANTIDIARREICO
5010|ANTIBIOTERAPIA
5021|ANTIBIOTICO-MUCOLITICO
5024|ANTIBIOTICO-EXPECTORANTE
503|DESINFECTANTE INTESTINAL
5035|ANTIBIOTICO-SEDANTE
505|ANEXOSMOTICA
5099|ANTIBIOTICO-ANTIINFLAMATORIO
5101|ANTIBACTERIAL
5102|BACTERICIDA
5103|BACTERIOSTATICO
5104|ANTIGERMENES
5105|ANTIBACTERIANO
512|ASTRINGENTE INTESTINAL
513|REPOSICION HIDRICA
5199|ANTIBACTERIANO-OTROS
5201|TUBERCULOSTATICO
5202|ANTITUBERCULOSO
5203|ANTIFIMICO
5299|TUBERCULOSTATICO-OTROS
5301|BAJAR REPLICACION VIRAL
5301|ANTIVIRIASICA
5303|ANTIVIRICO
535|ESTIPTICO INTESTINAL
5399|ANTIRRETROVIRAL
5401|INMUNIZACION
5402|PROFILACTICO
5403|VACUNACION
5404|ANTITETANICO
5409|AUMENTO DEFENSAS
5415|PREVENIR TETANUS
5416|PROFILACTICO TETANICO
5417|INMUNOLOGICO
5418|ESTIMULANTE DEFENSAS
5499|INMUNOTERAPICO
5501|ASEPSIA
5502|DESINFECTANTE
5509|ANTISEPTICO INTESTINAL
5599|ANTISEPTICO-OTROS
5601|PARASITICIDA
5603|AMEBICIDA
5604|ANTIHELMINTICA
5606|ELIMINAR TRICOMONAS
5606|TRICOMONICIDA
5608|ANTIMONILIA
5609|ANTIOXIUROS
5610|ANTITRICOMONAS
5613|VERMIFUGO
5699|ACARICIDA
5699|ESCABICIDA
5904|SULFAMIDAS
5906|ANTIESTREPTOCOCICO
5907|ANTIGONOCOCICO
599|ANTIDIARREICO-OTROS
5999|OTROS EFECTOS ANTIINFECCIOSOS
6|GASTRO PROTECTOR
6|PROTECTOR GASTRICO
6001|ANTIINFLAMATORIO
6001|AINS
6002|ANTIFLOGISTICO
6004|ANALGESICO/ANTIINFLAMATORIO
601|REDUCIR PESO
602|INHIBIDOR APETITO
606|ANOREXIANTE
607|ANOREXIGENO
608|DISMINUIR APETITO
6099|ANTIINFLAMATORIO-OTROS
6101|DMAR
611|ANOREXICO
6199|ANTIRREUMATICO-OTROS
6299|RUBEFACIENTE-OTROS
6301|RELAJANTE MUSCULAR
6307|MIORELAJANTE
6308|DESCONTRACTURANTE
6315|ANTICONTRACTURANTE
6399|RELAJANTE MUSCULAR-OTROS
6401|ANTIGOTOSO
6402|HIPOURICO
6405|ANTIURICEMICO
6406|URICOSURICO
6499|INHIBIR SINTESIS PURINAS
6501|ANTIARTRITICO
6502|ANTIARTROSICO
6504|NUTRICION CARTILAGO
6599|ANTIARTRITICO-OTROS
6902|CONDRORREGENERATIVO
699|SACIANTE
6999|EVITAR FRACTURAS
6999|INHIBIDOR OSTEOCLASTOS
6999|FORTALECER HUESO
6999|FORMADOR HUESO
6999|OSTEOGENICO
6999|OSTEOFORMADOR
6999|OSTEOBLASTICO
6999|MODULADOR OSEO
6999|AUMENTAR MASA OSEA
7|ANTIULCERA GASTRICA
7001|ANESTESICO
701|DIGESTIVO
702|ENZIMATICO
704|EUPEPTICO
706|MEJORAR FLORA INTESTINAL
706|REGULADOR FLORA INTESTINAL
707|FACILITAR DIGESTION
708|FERMENTOS
7099|ANESTESICO-OTROS
7101|ANALGESICO
7102|ANALGESICO/ANTIPIRETICO
7103|ANTIMIGRANOSO
7104|APIRETICO
7105|BAJAR DOLOR NEUROPATICO
7106|ANTITERMICO
7108|ANTIALGICO
7109|CALMAR DOLOR
711|ANTIDISPEPSIA
7110|ANTIFEBRIL
7111|ANTIJAQUECOSA
7113|ANTISEROTONICO
7117|DIAFORETICO
7119|SUDORIFICO
7124|ANALGESICO/ANTITERMICO
713|ANTIFERMENTATIVO
7199|ANTINOCICEPTIVO
7199|ANALGESICO/ANTIPIRETICO-OTROS
7199|ANTICEFALEA
7199|BAJAR TEMPERATURA
7201|ANTIEPILEPTICO
7203|ANTICONVULSIVO
7205|ANTIPARKINSON
7213|ANTICOMICIAL
7299|AGONISTA DOPAMINA
7301|TRANQUILIZANTE
7302|SEDANTE
7303|RELAJANTE
7304|HIPNOTICO
7307|CALMANTE
7308|ANSIOLITICO
7309|SOMNIFERO
7310|NEUROLEPTICO
7311|TIMOLEPTICO SEDANTE
7312|NEUROSEDANTE
7313|ANTIPSICOTICO
7331|ATARAXICO
7336|INDUCIR SUEÑO
7345|ANTIOBSESIVO
7347|PSICOLEPTICO
7399|ANTIAGITACION
7401|ANTIDEPRESIVA
7404|PSICOESTIMULANTE
7406|ANTINEUROTICO
7407|PSICOTROPICO
7408|ESTIMULANTE
7420|PSICOREGULADOR
7424|PSICOTONICO
7427|ANTIFATIGA
7428|TONICO NERVIOSO
7429|PSICOANALEPTICO
7430|TONICO CEREBRAL
7442|NOOTROPICO
7499|ANTISEROTONINA
7499|SUBIR ANIMO
7499|REGULADOR COMPORTAMIENTO
7499|MEJORAR ATENCION
7499|ISRS
7499|INHIBIDOR SELECTIVO RECAPTACION SEROTONINA
7499|MEJORAR CONCENTRACION
7499|PSICOANALEPTICO-OTROS
7499|EUFORIZANTE
7901|VAGOLITICO
7906|ANTIDISTONIA
7911|NEUROTROPICO
7912|ESTABILIZAR ANIMO
7913|NEUROTROFICO
7926|REGULADOR CEREBRAL
799|DIGESTIVO-OTROS
7999|COLINERGICO
7999|ESTABILIZADOR NEURONAL
7999|OTROS EFECTOS SISTEMA NERVIOSO CENTRAL
7999|NEUROMODULADOR
7999|SIMPATICOMIMETICO
8|ELIMINAR GASES
8|CONTRA AEROFAGIA
8|ANTIAEROCOLIA
8001|DESCONGESTIONANTE NASAL
8002|ANTIRESFRIADO
8006|ANTIRINITIS
801|ANTIDIABETICO
802|BAJAR GLUCEMIA
804|SUSTITUTIVA
809|ANTIGLUCEMIANTE
8099|HIGIENE NASAL
8099|DESCONGESTIONANTE NASAL-OTROS
8099|LIMPIEZA NASAL
8101|ANTIASMATICO
8102|BRONCODILATADOR
8103|ANTIDISNEICO
8104|ESTIMULANTE RESPIRATORIO
8107|EUPNEICO
8115|OXIGENADOR
8121|BRONCO ESPASMOLITICO
8199|ANTILEUCOTRIENOS
8202|BALSAMICA
8299|INHALANTE-OTROS
8301|FACILITAR EXPECTORACION
8302|MUCOLITICA
8305|FLUIDIFICANTE
8320|MUCOLITICO EXPECTORANTE
8399|MUCOLITICO BRONCODILATADOR
8401|ANTITUSIGENO
8402|BEQUICA
8403|SEDANTE TOS
8411|ANTITUSIVO
8412|CALMAR TOS
8499|BAJAR TOS
8501|ANTIHISTAMINICO
8599|ANTIHISTAMINICO-OTROS
8601|ANTIGRIPAL
8699|ANTIGRIPAL-OTROS
899|DIABETOGENO
899|GLP 1 ANALOGO
899|IDPP-4
899|INHIBIDOR DIPEPTIL PEPTIDASA -4
899|INSULINOTERAPIA
899|ANTIBIGUANIDA
899|NORMALIZAR HB 1 AC
9|ALCALINO
9001|ANTIALERGICO
9002|DESENSIBILIZANTE
901|VITAMINOTERAPIA
902|TONICO
903|ESTIMULANTE APETITO
904|ESTIMULANTE METABOLICO
906|CALCIFICANTE
908|RECONSTITUYENTE
9099|ALERGENOS-OTROS
910|REVITALIZANTE
9101|SINTOMATICO
9101|MEJORAR SINTOMAS
9102|ESPECIFICO
911|ANABOLICO
913|EUTROPICO
9138|BISMUTICO
914|ANALEPTICO
915|PROFILAXIS RAQUITISMO
917|NEUROTONICO
918|ANTINEURITICO
919|ANTIANOREXICO
9199|INMUNOMODULADOR
9199|MESOTERAPIA
9199|SIALOGOGO
9199|SUBIR ABSORCION CALCIO
9199|REPOSICION ELECTROLITICA
9199|RESCATE
9199|SUBIR ERECCION
9199|REGENERAR MUCOSAS
9199|POLITERAPIA
9199|QUELANTE FOSFORO
9199|QUELANTE CALCIO
9199|ACTIVAR SALIVA
9199|ANTICOLINESTERASICO
9199|ESPESANTE
9199|ETIOLOGICO
9199|ESTIMULAR SECRECION SALIVA
9199|FITOTERAPIA
9199|FIJAR CALCIO
9199|INHIBIDOR 5PDE
9199|INHIBIDOR 5 ALFA REDUCTASA
9199|INHIBIDOR FOSFODIESTERASA TIPO 5
9199|INDUCIR REMISION
9199|ERECTOGENO
9199|EDULCORANTE
9199|DISUASIVO
9199|DESBRIDANTE
920|ASTENOLITICO
9202|DIAGNOSTICAR EMBARAZO
924|ROBORANTE
9301|DESCONGESTIONANTE OFTALMICO
9302|MIOTICO
9303|DILATAR PUPILA
9315|ANTIGLAUCOMATOSO
9316|NORMOTENSOR OCULAR
938|VITAMINICO
938|COMPLEMENTO VITAMINICO
939|APORTE VITAMINAS
9399|CICLOPEJICO
9399|RELAJAR IRIS
9399|OFTALMOLOGICO-OTROS
9401|DESCONGESTIVO OTIC
9402|REBLANDECER CERUMEN
9402|DEMULCENTE CERA
941|MULTIVITAMINICO
942|HIPEROREXICO
945|SUBIR K
9499|REDUCIR PRESION ENDOLINFATICA
952|ENERGETICO
9602|INMUNOSUPRESOR
961|MINERALIZANTE
962|RECAPTADOR CALCIO
963|EUTROFICO
964|OREXIGENO
9801|PLACEBO
9802|POTENCIACION
9803|PRE OPERATORIO
9804|CERUMENOLITICO
9805|ACIDIFICANTE
9807|ANTICANCEROSO
9808|CURACION
9809|PALEATIVO
9810|REVULSIVO
9812|ANTICONGESTIVO
9814|FOTOPROTECTOR
9815|RESOLUTIVO
9817|PROBIOTICO
9818|ANTIMITOTICO
9819|ANTILITIASICO
9823|PROTEOLITICO
9825|ANTICALCULOSO
9829|SUSTITUTIVO
9829|TERAPIA SUSTITUTIVA
9830|ANTITOXICO
9839|DRENAJE
9841|DISOLVER CALCULOS
9846|ANAFILACTICO
9849|CITOSTATICO
9855|PREVENTIVO
9859|ANTITUMORAL
9860|ANTINEOPLASICO
9868|LITIASICO
9869|ANTISECRETOR
9870|LITOLITICO
9872|ANTIENOLICO
9874|HUMECTANTE
99|ANTIH2
990|APORTE CALCIO
999|VITAMINICO-OTROS
9999|NO INDICADO